{
    "annotations": {
      "list": [
        {
          "builtIn": 1,
          "datasource": {
            "type": "datasource",
            "uid": "grafana"
          },
          "enable": true,
          "hide": true,
          "iconColor": "rgba(0, 211, 255, 1)",
          "name": "Annotations & Alerts",
          "type": "dashboard"
        }
      ]
    },
    "description": "Visualize AWS RDS metrics",
    "editable": true,
    "fiscalYearStartMonth": 0,
    "gnetId": 707,
    "graphTooltip": 0,
    "id": 3,
    "links": [],
    "liveNow": false,
    "panels": [
      {
        "aliasColors": {},
        "bars": false,
        "dashLength": 10,
        "dashes": false,
        "datasource": {
          "type": "cloudwatch",
          "uid": "$datasource"
        },
        "editable": true,
        "error": false,
        "fieldConfig": {
          "defaults": {
            "color": {
              "mode": "palette-classic"
            },
            "custom": {
              "axisBorderShow": false,
              "axisCenteredZero": false,
              "axisColorMode": "text",
              "axisLabel": "",
              "axisPlacement": "auto",
              "barAlignment": 0,
              "drawStyle": "line",
              "fillOpacity": 0,
              "gradientMode": "none",
              "hideFrom": {
                "legend": false,
                "tooltip": false,
                "viz": false
              },
              "insertNulls": false,
              "lineInterpolation": "linear",
              "lineWidth": 1,
              "pointSize": 5,
              "scaleDistribution": {
                "type": "linear"
              },
              "showPoints": "never",
              "spanNulls": false,
              "stacking": {
                "group": "A",
                "mode": "none"
              },
              "thresholdsStyle": {
                "mode": "off"
              }
            },
            "mappings": [],
            "thresholds": {
              "mode": "absolute",
              "steps": [
                {
                  "color": "green",
                  "value": null
                },
                {
                  "color": "red",
                  "value": 80
                }
              ]
            },
            "unit": "percent"
          },
          "overrides": [
            {
              "matcher": {
                "id": "byName",
                "options": "FailedSQLServerAgentJobsCount"
              },
              "properties": [
                {
                  "id": "color",
                  "value": {
                    "fixedColor": "#E0B400",
                    "mode": "fixed"
                  }
                },
                {
                  "id": "custom.axisPlacement",
                  "value": "right"
                }
              ]
            }
          ]
        },
        "fill": 1,
        "fillGradient": 0,
        "grid": {},
        "gridPos": {
          "h": 7,
          "w": 24,
          "x": 0,
          "y": 0
        },
        "hiddenSeries": false,
        "id": 16,
        "legend": {
          "alignAsTable": true,
          "avg": true,
          "current": true,
          "max": true,
          "min": true,
          "show": true,
          "sort": "current",
          "sortDesc": true,
          "total": false,
          "values": true
        },
        "lines": true,
        "linewidth": 2,
        "nullPointMode": "connected",
        "options": {
          "dataLinks": [],
          "legend": {
            "calcs": [
              "min",
              "max",
              "mean"
            ],
            "displayMode": "table",
            "placement": "bottom",
            "showLegend": true
          },
          "tooltip": {
            "maxHeight": 600,
            "mode": "single",
            "sort": "none"
          }
        },
        "percentage": false,
        "pointradius": 5,
        "points": false,
        "renderer": "flot",
        "seriesOverrides": [
          {
            "alias": "FailedSQLServerAgentJobsCount_Average",
            "yaxis": 2
          }
        ],
        "spaceLength": 10,
        "stack": false,
        "steppedLine": false,
        "targets": [
          {
            "alias": "",
            "application": {
              "filter": ""
            },
            "datasource": {
              "uid": "$datasource"
            },
            "dimensions": {
              "DBInstanceIdentifier": "$dbinstanceidentifier"
            },
            "expression": "",
            "functions": [],
            "group": {
              "filter": ""
            },
            "host": {
              "filter": ""
            },
            "id": "",
            "item": {
              "filter": ""
            },
            "label": "",
            "matchExact": true,
            "metricEditorMode": 0,
            "metricName": "CPUUtilization",
            "metricQueryType": 0,
            "mode": 0,
            "namespace": "AWS/RDS",
            "options": {
              "showDisabledItems": false
            },
            "period": "",
            "refId": "A",
            "region": "$region",
            "statistic": "Average"
          },
          {
            "alias": "",
            "application": {
              "filter": ""
            },
            "datasource": {
              "uid": "$datasource"
            },
            "dimensions": {
              "DBInstanceIdentifier": "$dbinstanceidentifier"
            },
            "expression": "",
            "functions": [],
            "group": {
              "filter": ""
            },
            "host": {
              "filter": ""
            },
            "id": "",
            "item": {
              "filter": ""
            },
            "label": "",
            "matchExact": true,
            "metricEditorMode": 0,
            "metricName": "FailedSQLServerAgentJobsCount",
            "metricQueryType": 0,
            "mode": 0,
            "namespace": "AWS/RDS",
            "options": {
              "showDisabledItems": false
            },
            "period": "",
            "refId": "B",
            "region": "$region",
            "statistic": "Average"
          }
        ],
        "thresholds": [],
        "timeRegions": [],
        "title": "CPUUtilization/FailedSQLServerAgentJobsCount",
        "tooltip": {
          "msResolution": false,
          "shared": true,
          "sort": 0,
          "value_type": "cumulative"
        },
        "type": "timeseries",
        "xaxis": {
          "mode": "time",
          "show": true,
          "values": []
        },
        "yaxes": [
          {
            "format": "percent",
            "logBase": 1,
            "min": 0,
            "show": true
          },
          {
            "format": "cpm",
            "logBase": 1,
            "min": "0",
            "show": true
          }
        ],
        "yaxis": {
          "align": false
        }
      },
      {
        "aliasColors": {},
        "bars": false,
        "dashLength": 10,
        "dashes": false,
        "datasource": {
          "type": "cloudwatch",
          "uid": "$datasource"
        },
        "editable": true,
        "error": false,
        "fieldConfig": {
          "defaults": {
            "color": {
              "mode": "palette-classic"
            },
            "custom": {
              "axisBorderShow": false,
              "axisCenteredZero": false,
              "axisColorMode": "text",
              "axisLabel": "",
              "axisPlacement": "auto",
              "barAlignment": 0,
              "drawStyle": "line",
              "fillOpacity": 0,
              "gradientMode": "none",
              "hideFrom": {
                "legend": false,
                "tooltip": false,
                "viz": false
              },
              "insertNulls": false,
              "lineInterpolation": "linear",
              "lineWidth": 1,
              "pointSize": 5,
              "scaleDistribution": {
                "type": "linear"
              },
              "showPoints": "never",
              "spanNulls": false,
              "stacking": {
                "group": "A",
                "mode": "none"
              },
              "thresholdsStyle": {
                "mode": "off"
              }
            },
            "mappings": [],
            "thresholds": {
              "mode": "absolute",
              "steps": [
                {
                  "color": "green",
                  "value": null
                },
                {
                  "color": "red",
                  "value": 80
                }
              ]
            }
          },
          "overrides": [
            {
              "matcher": {
                "id": "byName",
                "options": "DiskQueueDepth"
              },
              "properties": [
                {
                  "id": "color",
                  "value": {
                    "fixedColor": "semi-dark-yellow",
                    "mode": "fixed"
                  }
                },
                {
                  "id": "custom.axisPlacement",
                  "value": "right"
                }
              ]
            }
          ]
        },
        "fill": 1,
        "fillGradient": 0,
        "grid": {},
        "gridPos": {
          "h": 7,
          "w": 24,
          "x": 0,
          "y": 7
        },
        "hiddenSeries": false,
        "id": 18,
        "legend": {
          "alignAsTable": true,
          "avg": true,
          "current": true,
          "max": true,
          "min": true,
          "show": true,
          "sort": "current",
          "sortDesc": true,
          "total": false,
          "values": true
        },
        "lines": true,
        "linewidth": 2,
        "nullPointMode": "connected",
        "options": {
          "dataLinks": [],
          "legend": {
            "calcs": [
              "min",
              "max",
              "mean"
            ],
            "displayMode": "table",
            "placement": "bottom",
            "showLegend": true
          },
          "tooltip": {
            "maxHeight": 600,
            "mode": "single",
            "sort": "none"
          }
        },
        "percentage": false,
        "pointradius": 5,
        "points": false,
        "renderer": "flot",
        "seriesOverrides": [],
        "spaceLength": 10,
        "stack": false,
        "steppedLine": false,
        "targets": [
          {
            "alias": "",
            "application": {
              "filter": ""
            },
            "datasource": {
              "uid": "$datasource"
            },
            "dimensions": {
              "DBInstanceIdentifier": "$dbinstanceidentifier"
            },
            "expression": "",
            "functions": [],
            "group": {
              "filter": ""
            },
            "host": {
              "filter": ""
            },
            "id": "",
            "item": {
              "filter": ""
            },
            "label": "",
            "matchExact": true,
            "metricEditorMode": 0,
            "metricName": "DatabaseConnections",
            "metricQueryType": 0,
            "mode": 0,
            "namespace": "AWS/RDS",
            "options": {
              "showDisabledItems": false
            },
            "period": "",
            "refId": "A",
            "region": "$region",
            "statistic": "Maximum"
          },
          {
            "alias": "",
            "application": {
              "filter": ""
            },
            "datasource": {
              "uid": "$datasource"
            },
            "dimensions": {
              "DBInstanceIdentifier": "$dbinstanceidentifier"
            },
            "expression": "",
            "functions": [],
            "group": {
              "filter": ""
            },
            "host": {
              "filter": ""
            },
            "id": "",
            "item": {
              "filter": ""
            },
            "label": "",
            "matchExact": true,
            "metricEditorMode": 0,
            "metricName": "DiskQueueDepth",
            "metricQueryType": 0,
            "mode": 0,
            "namespace": "AWS/RDS",
            "options": {
              "showDisabledItems": false
            },
            "period": "",
            "refId": "B",
            "region": "$region",
            "statistic": "Average"
          }
        ],
        "thresholds": [],
        "timeRegions": [],
        "title": "DatabaseConnections/DiskQueueDepth",
        "tooltip": {
          "msResolution": false,
          "shared": true,
          "sort": 0,
          "value_type": "cumulative"
        },
        "type": "timeseries",
        "xaxis": {
          "mode": "time",
          "show": true,
          "values": []
        },
        "yaxes": [
          {
            "format": "none",
            "logBase": 1,
            "min": 0,
            "show": true
          },
          {
            "format": "none",
            "logBase": 1,
            "show": true
          }
        ],
        "yaxis": {
          "align": false
        }
      },
      {
        "aliasColors": {},
        "bars": false,
        "dashLength": 10,
        "dashes": false,
        "datasource": {
          "type": "cloudwatch",
          "uid": "$datasource"
        },
        "editable": true,
        "error": false,
        "fieldConfig": {
          "defaults": {
            "color": {
              "mode": "palette-classic"
            },
            "custom": {
              "axisBorderShow": false,
              "axisCenteredZero": false,
              "axisColorMode": "text",
              "axisLabel": "",
              "axisPlacement": "auto",
              "barAlignment": 0,
              "drawStyle": "line",
              "fillOpacity": 0,
              "gradientMode": "none",
              "hideFrom": {
                "legend": false,
                "tooltip": false,
                "viz": false
              },
              "insertNulls": false,
              "lineInterpolation": "linear",
              "lineWidth": 1,
              "pointSize": 5,
              "scaleDistribution": {
                "type": "linear"
              },
              "showPoints": "never",
              "spanNulls": false,
              "stacking": {
                "group": "A",
                "mode": "none"
              },
              "thresholdsStyle": {
                "mode": "off"
              }
            },
            "mappings": [],
            "thresholds": {
              "mode": "absolute",
              "steps": [
                {
                  "color": "green",
                  "value": null
                },
                {
                  "color": "red",
                  "value": 80
                }
              ]
            },
            "unit": "bits"
          },
          "overrides": [
            {
              "matcher": {
                "id": "byName",
                "options": "FreeStorageSpace"
              },
              "properties": [
                {
                  "id": "color",
                  "value": {
                    "fixedColor": "semi-dark-yellow",
                    "mode": "fixed"
                  }
                },
                {
                  "id": "custom.axisPlacement",
                  "value": "right"
                }
              ]
            }
          ]
        },
        "fill": 1,
        "fillGradient": 0,
        "grid": {},
        "gridPos": {
          "h": 7,
          "w": 24,
          "x": 0,
          "y": 14
        },
        "hiddenSeries": false,
        "id": 17,
        "legend": {
          "alignAsTable": true,
          "avg": true,
          "current": true,
          "max": true,
          "min": true,
          "show": true,
          "sort": "current",
          "sortDesc": true,
          "total": false,
          "values": true
        },
        "lines": true,
        "linewidth": 2,
        "nullPointMode": "connected",
        "options": {
          "dataLinks": [],
          "legend": {
            "calcs": [
              "min",
              "max",
              "mean"
            ],
            "displayMode": "table",
            "placement": "bottom",
            "showLegend": true
          },
          "tooltip": {
            "maxHeight": 600,
            "mode": "single",
            "sort": "none"
          }
        },
        "percentage": false,
        "pointradius": 5,
        "points": false,
        "renderer": "flot",
        "seriesOverrides": [],
        "spaceLength": 10,
        "stack": false,
        "steppedLine": false,
        "targets": [
          {
            "alias": "",
            "application": {
              "filter": ""
            },
            "datasource": {
              "uid": "$datasource"
            },
            "dimensions": {
              "DBInstanceIdentifier": "$dbinstanceidentifier"
            },
            "functions": [],
            "group": {
              "filter": ""
            },
            "host": {
              "filter": ""
            },
            "item": {
              "filter": ""
            },
            "label": "",
            "metricEditorMode": 0,
            "metricName": "FreeableMemory",
            "metricQueryType": 0,
            "mode": 0,
            "namespace": "AWS/RDS",
            "options": {
              "showDisabledItems": false
            },
            "period": "",
            "refId": "A",
            "region": "$region",
            "statistic": "Average"
          },
          {
            "alias": "",
            "application": {
              "filter": ""
            },
            "datasource": {
              "uid": "$datasource"
            },
            "dimensions": {
              "DBInstanceIdentifier": "$dbinstanceidentifier"
            },
            "functions": [],
            "group": {
              "filter": ""
            },
            "host": {
              "filter": ""
            },
            "item": {
              "filter": ""
            },
            "label": "",
            "metricEditorMode": 0,
            "metricName": "FreeStorageSpace",
            "metricQueryType": 0,
            "mode": 0,
            "namespace": "AWS/RDS",
            "options": {
              "showDisabledItems": false
            },
            "period": "",
            "refId": "B",
            "region": "$region",
            "statistic": "Average"
          }
        ],
        "thresholds": [],
        "timeRegions": [],
        "title": "FreeableMemory/FreeStorageSpace",
        "tooltip": {
          "msResolution": false,
          "shared": true,
          "sort": 0,
          "value_type": "cumulative"
        },
        "type": "timeseries",
        "xaxis": {
          "mode": "time",
          "show": true,
          "values": []
        },
        "yaxes": [
          {
            "format": "bytes",
            "logBase": 1,
            "min": 0,
            "show": true
          },
          {
            "format": "bytes",
            "logBase": 1,
            "show": true
          }
        ],
        "yaxis": {
          "align": false
        }
      },
      {
        "aliasColors": {},
        "bars": false,
        "dashLength": 10,
        "dashes": false,
        "datasource": {
          "type": "cloudwatch",
          "uid": "$datasource"
        },
        "editable": true,
        "error": false,
        "fieldConfig": {
          "defaults": {
            "color": {
              "mode": "palette-classic"
            },
            "custom": {
              "axisBorderShow": false,
              "axisCenteredZero": false,
              "axisColorMode": "text",
              "axisLabel": "",
              "axisPlacement": "auto",
              "barAlignment": 0,
              "drawStyle": "line",
              "fillOpacity": 0,
              "gradientMode": "none",
              "hideFrom": {
                "legend": false,
                "tooltip": false,
                "viz": false
              },
              "insertNulls": false,
              "lineInterpolation": "linear",
              "lineWidth": 1,
              "pointSize": 5,
              "scaleDistribution": {
                "type": "linear"
              },
              "showPoints": "never",
              "spanNulls": false,
              "stacking": {
                "group": "A",
                "mode": "none"
              },
              "thresholdsStyle": {
                "mode": "off"
              }
            },
            "mappings": [],
            "thresholds": {
              "mode": "absolute",
              "steps": [
                {
                  "color": "green",
                  "value": null
                },
                {
                  "color": "red",
                  "value": 80
                }
              ]
            },
            "unit": "iops"
          },
          "overrides": [
            {
              "matcher": {
                "id": "byName",
                "options": "BurstBalance"
              },
              "properties": [
                {
                  "id": "color",
                  "value": {
                    "fixedColor": "blue",
                    "mode": "fixed"
                  }
                },
                {
                  "id": "custom.axisPlacement",
                  "value": "right"
                },
                {
                  "id": "unit",
                  "value": "none"
                }
              ]
            }
          ]
        },
        "fill": 1,
        "fillGradient": 0,
        "grid": {},
        "gridPos": {
          "h": 8,
          "w": 24,
          "x": 0,
          "y": 21
        },
        "hiddenSeries": false,
        "id": 19,
        "legend": {
          "alignAsTable": true,
          "avg": true,
          "current": true,
          "max": true,
          "min": true,
          "show": true,
          "sort": "current",
          "sortDesc": true,
          "total": false,
          "values": true
        },
        "lines": true,
        "linewidth": 2,
        "nullPointMode": "connected",
        "options": {
          "dataLinks": [],
          "legend": {
            "calcs": [
              "min",
              "max",
              "mean"
            ],
            "displayMode": "table",
            "placement": "bottom",
            "showLegend": true
          },
          "tooltip": {
            "maxHeight": 600,
            "mode": "single",
            "sort": "none"
          }
        },
        "percentage": false,
        "pointradius": 5,
        "points": false,
        "renderer": "flot",
        "seriesOverrides": [
          {
            "alias": "BurstBalance_Average",
            "yaxis": 2
          }
        ],
        "spaceLength": 10,
        "stack": false,
        "steppedLine": false,
        "targets": [
          {
            "alias": "",
            "application": {
              "filter": ""
            },
            "datasource": {
              "uid": "$datasource"
            },
            "dimensions": {
              "DBInstanceIdentifier": "$dbinstanceidentifier"
            },
            "expression": "",
            "functions": [],
            "group": {
              "filter": ""
            },
            "host": {
              "filter": ""
            },
            "id": "",
            "item": {
              "filter": ""
            },
            "label": "",
            "matchExact": true,
            "metricEditorMode": 0,
            "metricName": "ReadIOPS",
            "metricQueryType": 0,
            "mode": 0,
            "namespace": "AWS/RDS",
            "options": {
              "showDisabledItems": false
            },
            "period": "",
            "refId": "A",
            "region": "$region",
            "statistic": "Average"
          },
          {
            "alias": "",
            "application": {
              "filter": ""
            },
            "datasource": {
              "uid": "$datasource"
            },
            "dimensions": {
              "DBInstanceIdentifier": "$dbinstanceidentifier"
            },
            "expression": "",
            "functions": [],
            "group": {
              "filter": ""
            },
            "host": {
              "filter": ""
            },
            "id": "",
            "item": {
              "filter": ""
            },
            "label": "",
            "matchExact": true,
            "metricEditorMode": 0,
            "metricName": "WriteIOPS",
            "metricQueryType": 0,
            "mode": 0,
            "namespace": "AWS/RDS",
            "options": {
              "showDisabledItems": false
            },
            "period": "",
            "refId": "B",
            "region": "$region",
            "statistic": "Average"
          },
          {
            "alias": "",
            "application": {
              "filter": ""
            },
            "datasource": {
              "uid": "$datasource"
            },
            "dimensions": {
              "DBInstanceIdentifier": "$dbinstanceidentifier"
            },
            "expression": "",
            "functions": [],
            "group": {
              "filter": ""
            },
            "host": {
              "filter": ""
            },
            "id": "",
            "item": {
              "filter": ""
            },
            "label": "",
            "matchExact": true,
            "metricEditorMode": 0,
            "metricName": "BurstBalance",
            "metricQueryType": 0,
            "mode": 0,
            "namespace": "AWS/RDS",
            "options": {
              "showDisabledItems": false
            },
            "period": "",
            "refId": "C",
            "region": "$region",
            "statistic": "Average"
          }
        ],
        "thresholds": [],
        "timeRegions": [],
        "title": "ReadIOPS/WriteIOPS/BurstBalance",
        "tooltip": {
          "msResolution": false,
          "shared": true,
          "sort": 0,
          "value_type": "cumulative"
        },
        "type": "timeseries",
        "xaxis": {
          "mode": "time",
          "show": true,
          "values": []
        },
        "yaxes": [
          {
            "format": "iops",
            "logBase": 1,
            "min": 0,
            "show": true
          },
          {
            "format": "percent",
            "logBase": 1,
            "min": "0",
            "show": true
          }
        ],
        "yaxis": {
          "align": false
        }
      },
      {
        "aliasColors": {},
        "bars": false,
        "dashLength": 10,
        "dashes": false,
        "datasource": {
          "type": "cloudwatch",
          "uid": "$datasource"
        },
        "editable": true,
        "error": false,
        "fieldConfig": {
          "defaults": {
            "color": {
              "mode": "palette-classic"
            },
            "custom": {
              "axisBorderShow": false,
              "axisCenteredZero": false,
              "axisColorMode": "text",
              "axisLabel": "",
              "axisPlacement": "auto",
              "barAlignment": 0,
              "drawStyle": "line",
              "fillOpacity": 0,
              "gradientMode": "none",
              "hideFrom": {
                "legend": false,
                "tooltip": false,
                "viz": false
              },
              "insertNulls": false,
              "lineInterpolation": "linear",
              "lineWidth": 1,
              "pointSize": 5,
              "scaleDistribution": {
                "type": "linear"
              },
              "showPoints": "never",
              "spanNulls": false,
              "stacking": {
                "group": "A",
                "mode": "none"
              },
              "thresholdsStyle": {
                "mode": "off"
              }
            },
            "mappings": [],
            "thresholds": {
              "mode": "absolute",
              "steps": [
                {
                  "color": "green",
                  "value": null
                },
                {
                  "color": "red",
                  "value": 80
                }
              ]
            },
            "unit": "s"
          },
          "overrides": [
            {
              "matcher": {
                "id": "byName",
                "options": "WriteLatency"
              },
              "properties": [
                {
                  "id": "color",
                  "value": {
                    "fixedColor": "semi-dark-yellow",
                    "mode": "fixed"
                  }
                },
                {
                  "id": "custom.axisPlacement",
                  "value": "right"
                }
              ]
            }
          ]
        },
        "fill": 1,
        "fillGradient": 0,
        "grid": {},
        "gridPos": {
          "h": 7,
          "w": 24,
          "x": 0,
          "y": 29
        },
        "hiddenSeries": false,
        "id": 20,
        "legend": {
          "alignAsTable": true,
          "avg": true,
          "current": true,
          "max": true,
          "min": true,
          "show": true,
          "sort": "current",
          "sortDesc": true,
          "total": false,
          "values": true
        },
        "lines": true,
        "linewidth": 2,
        "nullPointMode": "connected",
        "options": {
          "dataLinks": [],
          "legend": {
            "calcs": [
              "min",
              "max",
              "mean"
            ],
            "displayMode": "table",
            "placement": "bottom",
            "showLegend": true
          },
          "tooltip": {
            "maxHeight": 600,
            "mode": "single",
            "sort": "none"
          }
        },
        "percentage": false,
        "pointradius": 5,
        "points": false,
        "renderer": "flot",
        "seriesOverrides": [],
        "spaceLength": 10,
        "stack": false,
        "steppedLine": false,
        "targets": [
          {
            "alias": "",
            "application": {
              "filter": ""
            },
            "datasource": {
              "uid": "$datasource"
            },
            "dimensions": {
              "DBInstanceIdentifier": "$dbinstanceidentifier"
            },
            "functions": [],
            "group": {
              "filter": ""
            },
            "host": {
              "filter": ""
            },
            "item": {
              "filter": ""
            },
            "label": "",
            "metricEditorMode": 0,
            "metricName": "ReadLatency",
            "metricQueryType": 0,
            "mode": 0,
            "namespace": "AWS/RDS",
            "options": {
              "showDisabledItems": false
            },
            "period": "",
            "refId": "A",
            "region": "$region",
            "statistic": "Average"
          },
          {
            "alias": "",
            "application": {
              "filter": ""
            },
            "datasource": {
              "uid": "$datasource"
            },
            "dimensions": {
              "DBInstanceIdentifier": "$dbinstanceidentifier"
            },
            "functions": [],
            "group": {
              "filter": ""
            },
            "host": {
              "filter": ""
            },
            "item": {
              "filter": ""
            },
            "label": "",
            "metricEditorMode": 0,
            "metricName": "WriteLatency",
            "metricQueryType": 0,
            "mode": 0,
            "namespace": "AWS/RDS",
            "options": {
              "showDisabledItems": false
            },
            "period": "",
            "refId": "B",
            "region": "$region",
            "statistic": "Average"
          }
        ],
        "thresholds": [],
        "timeRegions": [],
        "title": "ReadLatency/WriteLatency",
        "tooltip": {
          "msResolution": false,
          "shared": true,
          "sort": 0,
          "value_type": "cumulative"
        },
        "type": "timeseries",
        "xaxis": {
          "mode": "time",
          "show": true,
          "values": []
        },
        "yaxes": [
          {
            "format": "s",
            "logBase": 1,
            "min": 0,
            "show": true
          },
          {
            "format": "none",
            "logBase": 1,
            "show": false
          }
        ],
        "yaxis": {
          "align": false
        }
      },
      {
        "aliasColors": {},
        "bars": false,
        "dashLength": 10,
        "dashes": false,
        "datasource": {
          "type": "cloudwatch",
          "uid": "$datasource"
        },
        "editable": true,
        "error": false,
        "fieldConfig": {
          "defaults": {
            "color": {
              "mode": "palette-classic"
            },
            "custom": {
              "axisBorderShow": false,
              "axisCenteredZero": false,
              "axisColorMode": "text",
              "axisLabel": "",
              "axisPlacement": "auto",
              "barAlignment": 0,
              "drawStyle": "line",
              "fillOpacity": 0,
              "gradientMode": "none",
              "hideFrom": {
                "legend": false,
                "tooltip": false,
                "viz": false
              },
              "insertNulls": false,
              "lineInterpolation": "linear",
              "lineWidth": 1,
              "pointSize": 5,
              "scaleDistribution": {
                "type": "linear"
              },
              "showPoints": "never",
              "spanNulls": false,
              "stacking": {
                "group": "A",
                "mode": "none"
              },
              "thresholdsStyle": {
                "mode": "off"
              }
            },
            "mappings": [],
            "thresholds": {
              "mode": "absolute",
              "steps": [
                {
                  "color": "green"
                },
                {
                  "color": "red",
                  "value": 80
                }
              ]
            },
            "unit": "binBps"
          },
          "overrides": [
            {
              "matcher": {
                "id": "byName",
                "options": "WriteThroughput"
              },
              "properties": [
                {
                  "id": "color",
                  "value": {
                    "fixedColor": "semi-dark-yellow",
                    "mode": "fixed"
                  }
                },
                {
                  "id": "custom.axisPlacement",
                  "value": "right"
                }
              ]
            }
          ]
        },
        "fill": 1,
        "fillGradient": 0,
        "grid": {},
        "gridPos": {
          "h": 7,
          "w": 24,
          "x": 0,
          "y": 36
        },
        "hiddenSeries": false,
        "id": 21,
        "legend": {
          "alignAsTable": true,
          "avg": true,
          "current": true,
          "max": true,
          "min": true,
          "show": true,
          "sort": "current",
          "sortDesc": true,
          "total": false,
          "values": true
        },
        "lines": true,
        "linewidth": 2,
        "nullPointMode": "connected",
        "options": {
          "dataLinks": [],
          "legend": {
            "calcs": [
              "min",
              "max",
              "mean"
            ],
            "displayMode": "table",
            "placement": "bottom",
            "showLegend": true
          },
          "tooltip": {
            "maxHeight": 600,
            "mode": "single",
            "sort": "none"
          }
        },
        "percentage": false,
        "pointradius": 5,
        "points": false,
        "renderer": "flot",
        "seriesOverrides": [],
        "spaceLength": 10,
        "stack": false,
        "steppedLine": false,
        "targets": [
          {
            "alias": "",
            "application": {
              "filter": ""
            },
            "datasource": {
              "uid": "$datasource"
            },
            "dimensions": {
              "DBInstanceIdentifier": "$dbinstanceidentifier"
            },
            "functions": [],
            "group": {
              "filter": ""
            },
            "host": {
              "filter": ""
            },
            "item": {
              "filter": ""
            },
            "label": "",
            "metricEditorMode": 0,
            "metricName": "ReadThroughput",
            "metricQueryType": 0,
            "mode": 0,
            "namespace": "AWS/RDS",
            "options": {
              "showDisabledItems": false
            },
            "period": "",
            "refId": "A",
            "region": "$region",
            "statistic": "Average"
          },
          {
            "alias": "",
            "application": {
              "filter": ""
            },
            "datasource": {
              "uid": "$datasource"
            },
            "dimensions": {
              "DBInstanceIdentifier": "$dbinstanceidentifier"
            },
            "functions": [],
            "group": {
              "filter": ""
            },
            "host": {
              "filter": ""
            },
            "item": {
              "filter": ""
            },
            "label": "",
            "metricEditorMode": 0,
            "metricName": "WriteThroughput",
            "metricQueryType": 0,
            "mode": 0,
            "namespace": "AWS/RDS",
            "options": {
              "showDisabledItems": false
            },
            "period": "",
            "refId": "B",
            "region": "$region",
            "statistic": "Average"
          }
        ],
        "thresholds": [],
        "timeRegions": [],
        "title": "ReadThroughput/WriteThroughput",
        "tooltip": {
          "msResolution": false,
          "shared": true,
          "sort": 0,
          "value_type": "cumulative"
        },
        "type": "timeseries",
        "xaxis": {
          "mode": "time",
          "show": true,
          "values": []
        },
        "yaxes": [
          {
            "format": "Bps",
            "logBase": 1,
            "min": 0,
            "show": true
          },
          {
            "format": "none",
            "logBase": 1,
            "show": false
          }
        ],
        "yaxis": {
          "align": false
        }
      },
      {
        "aliasColors": {},
        "bars": false,
        "dashLength": 10,
        "dashes": false,
        "datasource": {
          "type": "cloudwatch",
          "uid": "$datasource"
        },
        "editable": true,
        "error": false,
        "fieldConfig": {
          "defaults": {
            "color": {
              "mode": "palette-classic"
            },
            "custom": {
              "axisBorderShow": false,
              "axisCenteredZero": false,
              "axisColorMode": "text",
              "axisLabel": "",
              "axisPlacement": "auto",
              "barAlignment": 0,
              "drawStyle": "line",
              "fillOpacity": 0,
              "gradientMode": "none",
              "hideFrom": {
                "legend": false,
                "tooltip": false,
                "viz": false
              },
              "insertNulls": false,
              "lineInterpolation": "linear",
              "lineWidth": 1,
              "pointSize": 5,
              "scaleDistribution": {
                "type": "linear"
              },
              "showPoints": "never",
              "spanNulls": false,
              "stacking": {
                "group": "A",
                "mode": "none"
              },
              "thresholdsStyle": {
                "mode": "off"
              }
            },
            "mappings": [],
            "thresholds": {
              "mode": "absolute",
              "steps": [
                {
                  "color": "green"
                },
                {
                  "color": "red",
                  "value": 80
                }
              ]
            },
            "unit": "binBps"
          },
          "overrides": [
            {
              "matcher": {
                "id": "byName",
                "options": "NetworkTransmitThroughput"
              },
              "properties": [
                {
                  "id": "color",
                  "value": {
                    "fixedColor": "semi-dark-yellow",
                    "mode": "fixed"
                  }
                },
                {
                  "id": "custom.axisPlacement",
                  "value": "right"
                }
              ]
            }
          ]
        },
        "fill": 1,
        "fillGradient": 0,
        "grid": {},
        "gridPos": {
          "h": 7,
          "w": 24,
          "x": 0,
          "y": 43
        },
        "hiddenSeries": false,
        "id": 22,
        "legend": {
          "alignAsTable": true,
          "avg": true,
          "current": true,
          "max": true,
          "min": true,
          "show": true,
          "sort": "current",
          "sortDesc": true,
          "total": false,
          "values": true
        },
        "lines": true,
        "linewidth": 2,
        "nullPointMode": "connected",
        "options": {
          "dataLinks": [],
          "legend": {
            "calcs": [
              "min",
              "max",
              "mean"
            ],
            "displayMode": "table",
            "placement": "bottom",
            "showLegend": true
          },
          "tooltip": {
            "maxHeight": 600,
            "mode": "single",
            "sort": "none"
          }
        },
        "percentage": false,
        "pointradius": 5,
        "points": false,
        "renderer": "flot",
        "seriesOverrides": [],
        "spaceLength": 10,
        "stack": false,
        "steppedLine": false,
        "targets": [
          {
            "alias": "",
            "application": {
              "filter": ""
            },
            "datasource": {
              "uid": "$datasource"
            },
            "dimensions": {
              "DBInstanceIdentifier": "$dbinstanceidentifier"
            },
            "functions": [],
            "group": {
              "filter": ""
            },
            "host": {
              "filter": ""
            },
            "item": {
              "filter": ""
            },
            "label": "",
            "metricEditorMode": 0,
            "metricName": "NetworkReceiveThroughput",
            "metricQueryType": 0,
            "mode": 0,
            "namespace": "AWS/RDS",
            "options": {
              "showDisabledItems": false
            },
            "period": "",
            "refId": "A",
            "region": "$region",
            "statistic": "Average"
          },
          {
            "alias": "",
            "application": {
              "filter": ""
            },
            "datasource": {
              "uid": "$datasource"
            },
            "dimensions": {
              "DBInstanceIdentifier": "$dbinstanceidentifier"
            },
            "functions": [],
            "group": {
              "filter": ""
            },
            "host": {
              "filter": ""
            },
            "item": {
              "filter": ""
            },
            "label": "",
            "metricEditorMode": 0,
            "metricName": "NetworkTransmitThroughput",
            "metricQueryType": 0,
            "mode": 0,
            "namespace": "AWS/RDS",
            "options": {
              "showDisabledItems": false
            },
            "period": "",
            "refId": "B",
            "region": "$region",
            "statistic": "Average"
          }
        ],
        "thresholds": [],
        "timeRegions": [],
        "title": "NetworkReceiveThroughput/NetworkTransmitThroughput",
        "tooltip": {
          "msResolution": false,
          "shared": true,
          "sort": 0,
          "value_type": "cumulative"
        },
        "type": "timeseries",
        "xaxis": {
          "mode": "time",
          "show": true,
          "values": []
        },
        "yaxes": [
          {
            "format": "Bps",
            "logBase": 1,
            "min": 0,
            "show": true
          },
          {
            "format": "none",
            "logBase": 1,
            "show": false
          }
        ],
        "yaxis": {
          "align": false
        }
      },
      {
        "aliasColors": {},
        "bars": false,
        "dashLength": 10,
        "dashes": false,
        "datasource": {
          "type": "cloudwatch",
          "uid": "$datasource"
        },
        "editable": true,
        "error": false,
        "fieldConfig": {
          "defaults": {
            "color": {
              "mode": "palette-classic"
            },
            "custom": {
              "axisBorderShow": false,
              "axisCenteredZero": false,
              "axisColorMode": "text",
              "axisLabel": "",
              "axisPlacement": "auto",
              "barAlignment": 0,
              "drawStyle": "line",
              "fillOpacity": 0,
              "gradientMode": "none",
              "hideFrom": {
                "legend": false,
                "tooltip": false,
                "viz": false
              },
              "insertNulls": false,
              "lineInterpolation": "linear",
              "lineWidth": 1,
              "pointSize": 5,
              "scaleDistribution": {
                "type": "linear"
              },
              "showPoints": "never",
              "spanNulls": false,
              "stacking": {
                "group": "A",
                "mode": "none"
              },
              "thresholdsStyle": {
                "mode": "off"
              }
            },
            "mappings": [],
            "thresholds": {
              "mode": "absolute",
              "steps": [
                {
                  "color": "green"
                },
                {
                  "color": "red",
                  "value": 80
                }
              ]
            },
            "unit": "bytes"
          },
          "overrides": [
            {
              "matcher": {
                "id": "byName",
                "options": "BinLogDiskUsage"
              },
              "properties": [
                {
                  "id": "color",
                  "value": {
                    "fixedColor": "semi-dark-yellow",
                    "mode": "fixed"
                  }
                },
                {
                  "id": "custom.axisPlacement",
                  "value": "right"
                }
              ]
            }
          ]
        },
        "fill": 1,
        "fillGradient": 0,
        "grid": {},
        "gridPos": {
          "h": 7,
          "w": 24,
          "x": 0,
          "y": 50
        },
        "hiddenSeries": false,
        "id": 23,
        "legend": {
          "alignAsTable": true,
          "avg": true,
          "current": true,
          "max": true,
          "min": true,
          "show": true,
          "sort": "current",
          "sortDesc": true,
          "total": false,
          "values": true
        },
        "lines": true,
        "linewidth": 2,
        "nullPointMode": "connected",
        "options": {
          "dataLinks": [],
          "legend": {
            "calcs": [
              "min",
              "max",
              "mean"
            ],
            "displayMode": "table",
            "placement": "bottom",
            "showLegend": true
          },
          "tooltip": {
            "maxHeight": 600,
            "mode": "single",
            "sort": "none"
          }
        },
        "percentage": false,
        "pointradius": 5,
        "points": false,
        "renderer": "flot",
        "seriesOverrides": [],
        "spaceLength": 10,
        "stack": false,
        "steppedLine": false,
        "targets": [
          {
            "alias": "",
            "application": {
              "filter": ""
            },
            "datasource": {
              "uid": "$datasource"
            },
            "dimensions": {
              "DBInstanceIdentifier": "$dbinstanceidentifier"
            },
            "functions": [],
            "group": {
              "filter": ""
            },
            "host": {
              "filter": ""
            },
            "item": {
              "filter": ""
            },
            "label": "",
            "metricEditorMode": 0,
            "metricName": "SwapUsage",
            "metricQueryType": 0,
            "mode": 0,
            "namespace": "AWS/RDS",
            "options": {
              "showDisabledItems": false
            },
            "period": "",
            "refId": "A",
            "region": "$region",
            "statistic": "Average"
          },
          {
            "alias": "",
            "application": {
              "filter": ""
            },
            "datasource": {
              "uid": "$datasource"
            },
            "dimensions": {
              "DBInstanceIdentifier": "$dbinstanceidentifier"
            },
            "functions": [],
            "group": {
              "filter": ""
            },
            "host": {
              "filter": ""
            },
            "item": {
              "filter": ""
            },
            "label": "",
            "metricEditorMode": 0,
            "metricName": "BinLogDiskUsage",
            "metricQueryType": 0,
            "mode": 0,
            "namespace": "AWS/RDS",
            "options": {
              "showDisabledItems": false
            },
            "period": "",
            "refId": "B",
            "region": "$region",
            "statistic": "Average"
          }
        ],
        "thresholds": [],
        "timeRegions": [],
        "title": "SwapUsage/BinLogDiskUsage",
        "tooltip": {
          "msResolution": false,
          "shared": true,
          "sort": 0,
          "value_type": "cumulative"
        },
        "type": "timeseries",
        "xaxis": {
          "mode": "time",
          "show": true,
          "values": []
        },
        "yaxes": [
          {
            "format": "bytes",
            "logBase": 1,
            "min": 0,
            "show": true
          },
          {
            "format": "bytes",
            "logBase": 1,
            "show": true
          }
        ],
        "yaxis": {
          "align": false
        }
      },
      {
        "aliasColors": {},
        "bars": false,
        "dashLength": 10,
        "dashes": false,
        "datasource": {
          "type": "cloudwatch",
          "uid": "$datasource"
        },
        "editable": true,
        "error": false,
        "fieldConfig": {
          "defaults": {
            "color": {
              "mode": "palette-classic"
            },
            "custom": {
              "axisBorderShow": false,
              "axisCenteredZero": false,
              "axisColorMode": "text",
              "axisLabel": "",
              "axisPlacement": "auto",
              "barAlignment": 0,
              "drawStyle": "line",
              "fillOpacity": 0,
              "gradientMode": "none",
              "hideFrom": {
                "legend": false,
                "tooltip": false,
                "viz": false
              },
              "insertNulls": false,
              "lineInterpolation": "linear",
              "lineWidth": 1,
              "pointSize": 5,
              "scaleDistribution": {
                "type": "linear"
              },
              "showPoints": "never",
              "spanNulls": false,
              "stacking": {
                "group": "A",
                "mode": "none"
              },
              "thresholdsStyle": {
                "mode": "off"
              }
            },
            "mappings": [],
            "thresholds": {
              "mode": "absolute",
              "steps": [
                {
                  "color": "green"
                },
                {
                  "color": "red",
                  "value": 80
                }
              ]
            },
            "unit": "none"
          },
          "overrides": [
            {
              "matcher": {
                "id": "byName",
                "options": "CPUCreditBalance"
              },
              "properties": [
                {
                  "id": "color",
                  "value": {
                    "fixedColor": "semi-dark-yellow",
                    "mode": "fixed"
                  }
                },
                {
                  "id": "custom.axisPlacement",
                  "value": "right"
                }
              ]
            }
          ]
        },
        "fill": 1,
        "fillGradient": 0,
        "grid": {},
        "gridPos": {
          "h": 7,
          "w": 24,
          "x": 0,
          "y": 57
        },
        "hiddenSeries": false,
        "id": 24,
        "legend": {
          "alignAsTable": true,
          "avg": true,
          "current": true,
          "max": true,
          "min": true,
          "show": true,
          "sort": "current",
          "sortDesc": true,
          "total": false,
          "values": true
        },
        "lines": true,
        "linewidth": 2,
        "nullPointMode": "connected",
        "options": {
          "dataLinks": [],
          "legend": {
            "calcs": [
              "min",
              "max",
              "mean"
            ],
            "displayMode": "table",
            "placement": "bottom",
            "showLegend": true
          },
          "tooltip": {
            "maxHeight": 600,
            "mode": "single",
            "sort": "none"
          }
        },
        "percentage": false,
        "pointradius": 5,
        "points": false,
        "renderer": "flot",
        "seriesOverrides": [],
        "spaceLength": 10,
        "stack": false,
        "steppedLine": false,
        "targets": [
          {
            "alias": "",
            "application": {
              "filter": ""
            },
            "datasource": {
              "uid": "$datasource"
            },
            "dimensions": {
              "DBInstanceIdentifier": "$dbinstanceidentifier"
            },
            "functions": [],
            "group": {
              "filter": ""
            },
            "host": {
              "filter": ""
            },
            "item": {
              "filter": ""
            },
            "label": "",
            "metricEditorMode": 0,
            "metricName": "CPUCreditUsage",
            "metricQueryType": 0,
            "mode": 0,
            "namespace": "AWS/RDS",
            "options": {
              "showDisabledItems": false
            },
            "period": "",
            "refId": "A",
            "region": "$region",
            "statistic": "Average"
          },
          {
            "alias": "",
            "application": {
              "filter": ""
            },
            "datasource": {
              "uid": "$datasource"
            },
            "dimensions": {
              "DBInstanceIdentifier": "$dbinstanceidentifier"
            },
            "functions": [],
            "group": {
              "filter": ""
            },
            "host": {
              "filter": ""
            },
            "item": {
              "filter": ""
            },
            "label": "",
            "metricEditorMode": 0,
            "metricName": "CPUCreditBalance",
            "metricQueryType": 0,
            "mode": 0,
            "namespace": "AWS/RDS",
            "options": {
              "showDisabledItems": false
            },
            "period": "",
            "refId": "B",
            "region": "$region",
            "statistic": "Average"
          }
        ],
        "thresholds": [],
        "timeRegions": [],
        "title": "CPUCreditUsage/CPUCreditBalance",
        "tooltip": {
          "msResolution": false,
          "shared": true,
          "sort": 0,
          "value_type": "cumulative"
        },
        "type": "timeseries",
        "xaxis": {
          "mode": "time",
          "show": true,
          "values": []
        },
        "yaxes": [
          {
            "format": "none",
            "logBase": 1,
            "min": 0,
            "show": true
          },
          {
            "format": "none",
            "logBase": 1,
            "show": true
          }
        ],
        "yaxis": {
          "align": false
        }
      },
      {
        "aliasColors": {},
        "bars": false,
        "dashLength": 10,
        "dashes": false,
        "datasource": {
          "type": "cloudwatch",
          "uid": "$datasource"
        },
        "editable": true,
        "error": false,
        "fieldConfig": {
          "defaults": {
            "color": {
              "mode": "palette-classic"
            },
            "custom": {
              "axisBorderShow": false,
              "axisCenteredZero": false,
              "axisColorMode": "text",
              "axisLabel": "",
              "axisPlacement": "auto",
              "barAlignment": 0,
              "drawStyle": "line",
              "fillOpacity": 0,
              "gradientMode": "none",
              "hideFrom": {
                "legend": false,
                "tooltip": false,
                "viz": false
              },
              "insertNulls": false,
              "lineInterpolation": "linear",
              "lineWidth": 1,
              "pointSize": 5,
              "scaleDistribution": {
                "type": "linear"
              },
              "showPoints": "never",
              "spanNulls": false,
              "stacking": {
                "group": "A",
                "mode": "none"
              },
              "thresholdsStyle": {
                "mode": "off"
              }
            },
            "mappings": [],
            "thresholds": {
              "mode": "absolute",
              "steps": [
                {
                  "color": "green"
                },
                {
                  "color": "red",
                  "value": 80
                }
              ]
            },
            "unit": "none"
          },
          "overrides": [
            {
              "matcher": {
                "id": "byName",
                "options": "ReplicaLag"
              },
              "properties": [
                {
                  "id": "color",
                  "value": {
                    "fixedColor": "semi-dark-yellow",
                    "mode": "fixed"
                  }
                },
                {
                  "id": "custom.axisPlacement",
                  "value": "right"
                }
              ]
            }
          ]
        },
        "fill": 1,
        "fillGradient": 0,
        "grid": {},
        "gridPos": {
          "h": 7,
          "w": 24,
          "x": 0,
          "y": 64
        },
        "hiddenSeries": false,
        "id": 25,
        "legend": {
          "alignAsTable": true,
          "avg": true,
          "current": true,
          "max": true,
          "min": true,
          "show": true,
          "sort": "current",
          "sortDesc": true,
          "total": false,
          "values": true
        },
        "lines": true,
        "linewidth": 2,
        "nullPointMode": "connected",
        "options": {
          "dataLinks": [],
          "legend": {
            "calcs": [
              "min",
              "max",
              "mean"
            ],
            "displayMode": "table",
            "placement": "bottom",
            "showLegend": true
          },
          "tooltip": {
            "maxHeight": 600,
            "mode": "single",
            "sort": "none"
          }
        },
        "percentage": false,
        "pointradius": 5,
        "points": false,
        "renderer": "flot",
        "seriesOverrides": [
          {
            "alias": "ReplicaLag_Average",
            "yaxis": 2
          }
        ],
        "spaceLength": 10,
        "stack": false,
        "steppedLine": false,
        "targets": [
          {
            "alias": "",
            "application": {
              "filter": ""
            },
            "datasource": {
              "uid": "$datasource"
            },
            "dimensions": {
              "DBInstanceIdentifier": "$dbinstanceidentifier"
            },
            "expression": "",
            "functions": [],
            "group": {
              "filter": ""
            },
            "host": {
              "filter": ""
            },
            "id": "",
            "item": {
              "filter": ""
            },
            "label": "",
            "matchExact": true,
            "metricEditorMode": 0,
            "metricName": "OldestReplicationSlotLag",
            "metricQueryType": 0,
            "mode": 0,
            "namespace": "AWS/RDS",
            "options": {
              "showDisabledItems": false
            },
            "period": "",
            "refId": "A",
            "region": "$region",
            "statistic": "Average"
          },
          {
            "alias": "",
            "application": {
              "filter": ""
            },
            "datasource": {
              "uid": "$datasource"
            },
            "dimensions": {
              "DBInstanceIdentifier": "$dbinstanceidentifier"
            },
            "expression": "",
            "functions": [],
            "group": {
              "filter": ""
            },
            "host": {
              "filter": ""
            },
            "id": "",
            "item": {
              "filter": ""
            },
            "label": "",
            "matchExact": true,
            "metricEditorMode": 0,
            "metricName": "ReplicaLag",
            "metricQueryType": 0,
            "mode": 0,
            "namespace": "AWS/RDS",
            "options": {
              "showDisabledItems": false
            },
            "period": "",
            "refId": "B",
            "region": "$region",
            "statistic": "Average"
          }
        ],
        "thresholds": [],
        "timeRegions": [],
        "title": "OldestReplicationSlotLag/ReplicaLag",
        "tooltip": {
          "msResolution": false,
          "shared": true,
          "sort": 0,
          "value_type": "cumulative"
        },
        "type": "timeseries",
        "xaxis": {
          "mode": "time",
          "show": true,
          "values": []
        },
        "yaxes": [
          {
            "format": "bytes",
            "logBase": 1,
            "min": 0,
            "show": true
          },
          {
            "format": "s",
            "logBase": 1,
            "min": "0",
            "show": true
          }
        ],
        "yaxis": {
          "align": false
        }
      },
      {
        "aliasColors": {},
        "bars": false,
        "dashLength": 10,
        "dashes": false,
        "datasource": {
          "type": "cloudwatch",
          "uid": "$datasource"
        },
        "editable": true,
        "error": false,
        "fieldConfig": {
          "defaults": {
            "color": {
              "mode": "palette-classic"
            },
            "custom": {
              "axisBorderShow": false,
              "axisCenteredZero": false,
              "axisColorMode": "text",
              "axisLabel": "",
              "axisPlacement": "auto",
              "barAlignment": 0,
              "drawStyle": "line",
              "fillOpacity": 0,
              "gradientMode": "none",
              "hideFrom": {
                "legend": false,
                "tooltip": false,
                "viz": false
              },
              "insertNulls": false,
              "lineInterpolation": "linear",
              "lineWidth": 1,
              "pointSize": 5,
              "scaleDistribution": {
                "type": "linear"
              },
              "showPoints": "never",
              "spanNulls": false,
              "stacking": {
                "group": "A",
                "mode": "none"
              },
              "thresholdsStyle": {
                "mode": "off"
              }
            },
            "mappings": [],
            "thresholds": {
              "mode": "absolute",
              "steps": [
                {
                  "color": "green"
                },
                {
                  "color": "red",
                  "value": 80
                }
              ]
            },
            "unit": "bytes"
          },
          "overrides": [
            {
              "matcher": {
                "id": "byName",
                "options": "TransactionLogsDiskUsage"
              },
              "properties": [
                {
                  "id": "color",
                  "value": {
                    "fixedColor": "semi-dark-yellow",
                    "mode": "fixed"
                  }
                },
                {
                  "id": "custom.axisPlacement",
                  "value": "right"
                }
              ]
            }
          ]
        },
        "fill": 1,
        "fillGradient": 0,
        "grid": {},
        "gridPos": {
          "h": 7,
          "w": 24,
          "x": 0,
          "y": 71
        },
        "hiddenSeries": false,
        "id": 26,
        "legend": {
          "alignAsTable": true,
          "avg": true,
          "current": true,
          "max": true,
          "min": true,
          "show": true,
          "sort": "current",
          "sortDesc": true,
          "total": false,
          "values": true
        },
        "lines": true,
        "linewidth": 2,
        "nullPointMode": "connected",
        "options": {
          "dataLinks": [],
          "legend": {
            "calcs": [
              "min",
              "max",
              "mean"
            ],
            "displayMode": "table",
            "placement": "bottom",
            "showLegend": true
          },
          "tooltip": {
            "maxHeight": 600,
            "mode": "single",
            "sort": "none"
          }
        },
        "percentage": false,
        "pointradius": 5,
        "points": false,
        "renderer": "flot",
        "seriesOverrides": [
          {
            "alias": "ReplicaLag_Average",
            "yaxis": 2
          }
        ],
        "spaceLength": 10,
        "stack": false,
        "steppedLine": false,
        "targets": [
          {
            "alias": "",
            "application": {
              "filter": ""
            },
            "datasource": {
              "uid": "$datasource"
            },
            "dimensions": {
              "DBInstanceIdentifier": "$dbinstanceidentifier"
            },
            "expression": "",
            "functions": [],
            "group": {
              "filter": ""
            },
            "host": {
              "filter": ""
            },
            "id": "",
            "item": {
              "filter": ""
            },
            "label": "",
            "matchExact": true,
            "metricEditorMode": 0,
            "metricName": "ReplicationSlotDiskUsage",
            "metricQueryType": 0,
            "mode": 0,
            "namespace": "AWS/RDS",
            "options": {
              "showDisabledItems": false
            },
            "period": "",
            "refId": "A",
            "region": "$region",
            "statistic": "Average"
          },
          {
            "alias": "",
            "application": {
              "filter": ""
            },
            "datasource": {
              "uid": "$datasource"
            },
            "dimensions": {
              "DBInstanceIdentifier": "$dbinstanceidentifier"
            },
            "expression": "",
            "functions": [],
            "group": {
              "filter": ""
            },
            "host": {
              "filter": ""
            },
            "id": "",
            "item": {
              "filter": ""
            },
            "label": "",
            "matchExact": true,
            "metricEditorMode": 0,
            "metricName": "TransactionLogsDiskUsage",
            "metricQueryType": 0,
            "mode": 0,
            "namespace": "AWS/RDS",
            "options": {
              "showDisabledItems": false
            },
            "period": "",
            "refId": "B",
            "region": "$region",
            "statistic": "Average"
          }
        ],
        "thresholds": [],
        "timeRegions": [],
        "title": "ReplicationSlotDiskUsage/TransactionLogsDiskUsage",
        "tooltip": {
          "msResolution": false,
          "shared": true,
          "sort": 0,
          "value_type": "cumulative"
        },
        "type": "timeseries",
        "xaxis": {
          "mode": "time",
          "show": true,
          "values": []
        },
        "yaxes": [
          {
            "format": "bytes",
            "logBase": 1,
            "min": 0,
            "show": true
          },
          {
            "format": "s",
            "logBase": 1,
            "min": "0",
            "show": false
          }
        ],
        "yaxis": {
          "align": false
        }
      },
      {
        "aliasColors": {},
        "bars": false,
        "dashLength": 10,
        "dashes": false,
        "datasource": {
          "type": "cloudwatch",
          "uid": "$datasource"
        },
        "editable": true,
        "error": false,
        "fieldConfig": {
          "defaults": {
            "color": {
              "mode": "palette-classic"
            },
            "custom": {
              "axisBorderShow": false,
              "axisCenteredZero": false,
              "axisColorMode": "text",
              "axisLabel": "",
              "axisPlacement": "auto",
              "barAlignment": 0,
              "drawStyle": "line",
              "fillOpacity": 0,
              "gradientMode": "none",
              "hideFrom": {
                "legend": false,
                "tooltip": false,
                "viz": false
              },
              "insertNulls": false,
              "lineInterpolation": "linear",
              "lineWidth": 1,
              "pointSize": 5,
              "scaleDistribution": {
                "type": "linear"
              },
              "showPoints": "never",
              "spanNulls": false,
              "stacking": {
                "group": "A",
                "mode": "none"
              },
              "thresholdsStyle": {
                "mode": "off"
              }
            },
            "mappings": [],
            "thresholds": {
              "mode": "absolute",
              "steps": [
                {
                  "color": "green"
                },
                {
                  "color": "red",
                  "value": 80
                }
              ]
            },
            "unit": "none"
          },
          "overrides": [
            {
              "matcher": {
                "id": "byName",
                "options": "TransactionLogsGeneration"
              },
              "properties": [
                {
                  "id": "color",
                  "value": {
                    "fixedColor": "semi-dark-yellow",
                    "mode": "fixed"
                  }
                },
                {
                  "id": "custom.axisPlacement",
                  "value": "right"
                }
              ]
            }
          ]
        },
        "fill": 1,
        "fillGradient": 0,
        "grid": {},
        "gridPos": {
          "h": 7,
          "w": 24,
          "x": 0,
          "y": 78
        },
        "hiddenSeries": false,
        "id": 27,
        "legend": {
          "alignAsTable": true,
          "avg": true,
          "current": true,
          "max": true,
          "min": true,
          "show": true,
          "sort": "current",
          "sortDesc": true,
          "total": false,
          "values": true
        },
        "lines": true,
        "linewidth": 2,
        "nullPointMode": "connected",
        "options": {
          "dataLinks": [],
          "legend": {
            "calcs": [
              "min",
              "max",
              "mean"
            ],
            "displayMode": "table",
            "placement": "bottom",
            "showLegend": true
          },
          "tooltip": {
            "maxHeight": 600,
            "mode": "single",
            "sort": "none"
          }
        },
        "percentage": false,
        "pointradius": 5,
        "points": false,
        "renderer": "flot",
        "seriesOverrides": [],
        "spaceLength": 10,
        "stack": false,
        "steppedLine": false,
        "targets": [
          {
            "alias": "",
            "application": {
              "filter": ""
            },
            "datasource": {
              "uid": "$datasource"
            },
            "dimensions": {
              "DBInstanceIdentifier": "$dbinstanceidentifier"
            },
            "expression": "",
            "functions": [],
            "group": {
              "filter": ""
            },
            "host": {
              "filter": ""
            },
            "id": "",
            "item": {
              "filter": ""
            },
            "label": "",
            "matchExact": true,
            "metricEditorMode": 0,
            "metricName": "MaximumUsedTransactionIDs",
            "metricQueryType": 0,
            "mode": 0,
            "namespace": "AWS/RDS",
            "options": {
              "showDisabledItems": false
            },
            "period": "",
            "refId": "A",
            "region": "$region",
            "statistic": "Average"
          },
          {
            "alias": "",
            "application": {
              "filter": ""
            },
            "datasource": {
              "uid": "$datasource"
            },
            "dimensions": {
              "DBInstanceIdentifier": "$dbinstanceidentifier"
            },
            "expression": "",
            "functions": [],
            "group": {
              "filter": ""
            },
            "host": {
              "filter": ""
            },
            "id": "",
            "item": {
              "filter": ""
            },
            "label": "",
            "matchExact": true,
            "metricEditorMode": 0,
            "metricName": "TransactionLogsGeneration",
            "metricQueryType": 0,
            "mode": 0,
            "namespace": "AWS/RDS",
            "options": {
              "showDisabledItems": false
            },
            "period": "",
            "refId": "B",
            "region": "$region",
            "statistic": "Average"
          }
        ],
        "thresholds": [],
        "timeRegions": [],
        "title": "MaximumUsedTransactionIDs/TransactionLogsGeneration",
        "tooltip": {
          "msResolution": false,
          "shared": true,
          "sort": 0,
          "value_type": "cumulative"
        },
        "type": "timeseries",
        "xaxis": {
          "mode": "time",
          "show": true,
          "values": []
        },
        "yaxes": [
          {
            "format": "none",
            "logBase": 1,
            "min": 0,
            "show": true
          },
          {
            "format": "Bps",
            "logBase": 1,
            "min": "0",
            "show": true
          }
        ],
        "yaxis": {
          "align": false
        }
      },
      {
        "datasource": {
          "uid": "$datasource"
        },
        "editable": true,
        "error": false,
        "gridPos": {
          "h": 3,
          "w": 24,
          "x": 0,
          "y": 85
        },
        "id": 2,
        "options": {
          "code": {
            "language": "plaintext",
            "showLineNumbers": false,
            "showMiniMap": false
          },
          "content": "<a href=\"http://www.monitoringartist.com\" target=\"_blank\" title=\"Dashboard maintained by Monitoring Artist - DevOps / Docker / Kubernetes / AWS ECS / Google GCP / Zabbix / Zenoss / Terraform / Monitoring\"><img src=\"https://monitoringartist.github.io/monitoring-artist-logo-grafana.png\" height=\"30px\" /></a> | \n<a target=\"_blank\" href=\"https://docs.aws.amazon.com/AmazonRDS/latest/UserGuide/MonitoringOverview.html#monitoring-cloudwatch\">AWS CloudWatch RDS documentation</a> | \n<a target=\"_blank\" href=\"https://grafana.com/grafana/dashboards/707-aws-rds/\">Installed from Grafana.com dashboards</a>",
          "mode": "html"
        },
        "pluginVersion": "11.0.0",
        "targets": [
          {
            "datasource": {
              "uid": "$datasource"
            },
            "refId": "A"
          }
        ],
        "title": "Documentation",
        "type": "text"
      }
    ],
    "refresh": "15s",
    "schemaVersion": 39,
    "tags": [
      "cloudwatch"
    ],
    "templating": {
      "list": [
        {
          "current": {
            "selected": false,
            "text": "CloudWatch",
            "value": "P034F075C744B399F"
          },
          "hide": 0,
          "includeAll": false,
          "label": "Datasource",
          "multi": false,
          "name": "datasource",
          "options": [],
          "query": "cloudwatch",
          "queryValue": "ad",
          "refresh": 1,
          "regex": "",
          "skipUrlSync": false,
          "type": "datasource"
        },
        {
          "current": {
            "selected": false,
            "text": "default",
            "value": "default"
          },
          "datasource": {
            "uid": "$datasource"
          },
          "definition": "",
          "hide": 0,
          "includeAll": false,
          "label": "Region",
          "multi": false,
          "name": "region",
          "options": [],
          "query": "regions()",
          "refresh": 1,
          "regex": "",
          "skipUrlSync": false,
          "sort": 0,
          "tagValuesQuery": "",
          "tagsQuery": "",
          "type": "query",
          "useTags": false
        },
        {
          "current": {
            "selected": false,
            "text": "terraform-20240521192151329600000003",
            "value": "terraform-20240521192151329600000003"
          },
          "datasource": {
            "uid": "$datasource"
          },
          "definition": "",
          "hide": 0,
          "includeAll": false,
          "label": "DBInstanceIdentifier",
          "multi": false,
          "name": "dbinstanceidentifier",
          "options": [],
          "query": "dimension_values($region, AWS/RDS, CPUUtilization, DBInstanceIdentifier)",
          "refresh": 1,
          "regex": "",
          "skipUrlSync": false,
          "sort": 2,
          "tagValuesQuery": "",
          "tagsQuery": "",
          "type": "query",
          "useTags": false
        }
      ]
    },
    "time": {
      "from": "now-5m",
      "to": "now"
    },
    "timeRangeUpdatedDuringEditOrView": false,
    "timepicker": {
      "refresh_intervals": [
        "15s",
        "30s",
        "1m",
        "5m",
        "15m",
        "30m",
        "1h",
        "2h",
        "1d"
      ],
      "time_options": [
        "5m",
        "15m",
        "1h",
        "6h",
        "12h",
        "24h",
        "2d",
        "7d",
        "30d"
      ]
    },
    "timezone": "browser",
    "title": "AWS RDS",
    "uid": "AWSRDSdbi",
    "version": 1,
    "weekStart": ""
  }